{
   "type": "postgres",
   "password": "root",
   "username": "root",
   "database": "app",
   "host": "database",
   "synchronize": true,
   "logging": false,
   "entities": [
      "dist/entity/**/*.js"
   ],
   "migrations": [
      "dist/migration/**/*.js"
   ],
   "subscribers": [
      "dist/subscriber/**/*.js"
   ],
   "cli": {
      "entitiesDir": "src/entity",
      "migrationsDir": "src/migration",
      "subscribersDir": "src/subscriber"
   }
}